{
    "cover": "../images/cover/cover-test.jpg",
    "date": "30 июня 2016",
    "title": "Легенда «Огненные брызги на воде» в двух строчках",
    "content": "<p>Говорят, было это в стародавние времена. Легендарный герой эпоса, прародитель народа саха Эллэй Боотур устроил в благодатной озерной долине, поросшей густой мягкой травой, невиданный доселе праздник Ысыах в честь наступления лета, желая воспеть величие и красу гордой непокорной красавицы &ndash; северной природы, утвердить и прославить радость жизни, извечный её круговорот.</p><p>В старину ценилось и почиталось это благодатное место у озерной глади. Очертания озера, его местоположение, глубина &ndash; всё задумала и сотворила природа так, чтобы оно стало для людей и животных источником жизни и благоденствия. Традиции незыблемы. Воспетая в былинах полноводная кормилица, очертаниями похожая на дородную кобылицу, и заводь её, подобная заплетённой в косу длинной гриве, стали местом поклонения божеству Джесегэй - так повелось издревле. В тех местах проводились скачки лучших жеребцов.</p>",
    "nextId": 3,
    "nextCover": "../images/cover/cover-test.jpg",
    "nextDate": "30 июня 2016",
    "nextTitle": "Легенда «Огненные брызги на воде» в двух строчках"
}